<svg xmlns="http://www.w3.org/2000/svg" viewBox="-10 -10 160 220">
<style type="text/css"><![CDATA[
.branch {
	fill: none;
	stroke-width: 10;
	stroke-linecap: round;
}
.commit {
	fill: #fff;
	stroke-width: 5;
}
.label-tag {
	fill: #333;
}
.label-rect {
	stroke: none;
}
.label-text {
	font-family: Inconsolata, Consolas, monospace;
	font-size: 14px;
	fill: #fff;
	stroke: none;
}
.branch-master {stroke: #002b36; fill: #002b36}
]]></style>
<g class="merge">
	<g class="branch-master">
		<path class="branch" d="M0,0 C0,0 0,0 0,50" />
		<path class="branch" d="M0,150 L0,200" />
	</g>
</g>
<g class="branch-master">
	<path class="branch" d="M0,50 L0,150" />
	<circle class="commit" cx="0" cy="50" r="7.5" />
	<circle class="commit" cx="0" cy="100" r="7.5" />
	<circle class="commit" cx="0" cy="150" r="7.5" />
	<g class="label-tag" transform="translate(50,150)">
		<rect x="0" y="-14" width="38" height="24" rx="3" class="label-rect" />
		<text x="5" y="2" textLength="28" class="label-text">MR-1</text>
	</g>
	<g class="label-branch" transform="translate(98,150)">
		<rect x="0" y="-14" width="52" height="24" rx="3" class="label-rect" />
		<text x="5" y="2" textLength="42" class="label-text">master</text>
	</g>
</g>
</svg>
